{ "Items": [{ "Heading": "Marriage Meaning", "Description": "It's no secret that marriage has been changing. This website explores the changing meanings of marriage and their implications for young adults today who aspire to forming and sustaining a healthy, life-long marriage. \"Whatever\" doesn't work well when it comes to the meaning of marriage because meaning quietly but powerfully shapes our attitudes and behaviors. Yes, people experience marriage in highly personal ways, but it is not a privatized commodity. It is a public institution that guides our behavior. What marriage means in society matters.", "Link": "http://marriagemeaning.org", "ImagePath": "https://familylife.byu.edu/Assets/Images/Slideshow/slide1.jpg" },
{ "Heading": "SFL Undergraduate Degrees", "Description": "Two of the undergraduate degrees in the School of Family Life - Family Studies and Human Development - each have two emphasis - <br/>Family Studies - <ul><li>Family Studies</li><li>Family Services</li></ul>Human Development - <ul><li>Human Development</li><li>Biological Foundations</li></ul>Check out the differences and possibly find the one that meets your interest and academic passion!", "Link": "undergraduate-degrees.html", "ImagePath": "https://familylife.byu.edu/Assets/Images/Slideshow/slide2b.png" },
{ "Heading": "Family Proclamation", "Description": "Celebration of The Family Proclamation<br/>1995 - 2015", "Link": "proclamation.html", "ImagePath": "https://familylife.byu.edu/Assets/Images/Slideshow/family.png" },
{ "Heading": "Daddies or Dummies", "Description": "Savannah Keenan, recent winner of the FHSS College's Fulton Conference in the category of Family Life at BYU,  found that almost 40 percent of fatherly behavior on popular tween television shows like the Disney Channel's Good Luck Charlie could be considered ridiculous or buffoonery. But what is truly eye opening is the on-screen response of children to their fathers. Fifty percent of it is negative.<br/>Click <a href='https://fhssbyu.com/2016/06/07/daddies-or-dummies-is-the-media-teaching-our-youth-to-disregard-dad/' > here </a> to read full article.", "Link": "https://fhssbyu.com/2016/06/07/daddies-or-dummies-is-the-media-teaching-our-youth-to-disregard - dad /", "ImagePath": "https://familylife.byu.edu/Assets/Images/Slideshow/Daddies or Dummies.jpg" },
{ "Heading": "The Fantasy and Reality of Your Royal Identity", "Description": "Sarah Coyne, Associate Professor of Human Development recently delivered a devotional address on \"The Fantasy and Reality of Your Royal Identity. Using new research on the Disney Princess culture, Coyne has found that this media may cause gender-problematic behaviors in girls.<br/>Learn more <a href='https://news.byu.edu/news/disney-princesses-not-brave-enough'>here</a>, which includes a link to the full address.", "Link": "https://news.byu.edu/news/disney-princesses-not-brave-enough", "ImagePath": "https://familylife.byu.edu/Assets/Images/Slideshow/Princesses vs. reality.jpeg" },
{ "Heading": "New SFL Alumni Magazine", "Description": "Dear SFL Alumni, here is the next issue of our alumni magazine, \"Family Connections,\" featuring accomplishments of SFL alumni, faculty members, and other valuable resources. Enjoy!\"", "Link": "Documents/SFL%20Alumni%20Magazine%20SUMMER%202016%20FINAL%20V3.pdf", "ImagePath": "https://familylife.byu.edu/Assets/Images/Slideshow/slide6.jpg" }
] }